<svg xmlns="http://www.w3.org/2000/svg" width="120" height="115" viewBox="0 0 120 115">
    <g fill="none" fill-rule="nonzero">
        <g fill="#F99F1C">
            <path d="M52.398 71.494h26.199v37.628h-26.2zM56.14 43.273h18.714v18.814H56.14z"/>
        </g>
        <g fill="#555">
            <path d="M16.842 114.766a1.876 1.876 0 0 1-1.871-1.882V43.875c0-1.04.838-1.881 1.871-1.881s1.871.84 1.871 1.881v69.01c0 1.04-.838 1.88-1.87 1.88z"/>
            <path d="M117.895 114.766H1.87A1.876 1.876 0 0 1 0 112.884c0-1.04.838-1.881 1.871-1.881h116.024c1.033 0 1.871.841 1.871 1.881s-.838 1.882-1.871 1.882z"/>
            <path d="M102.924 114.766a1.876 1.876 0 0 1-1.871-1.882V43.875c0-1.04.838-1.881 1.871-1.881s1.871.84 1.871 1.881v69.01c0 1.04-.838 1.88-1.871 1.88z"/>
            <path d="M113.308 53.169c-.374 0-.752-.113-1.082-.348L59.883 15.479 7.54 52.821a1.86 1.86 0 0 1-2.58-.405L.377 46.283a1.894 1.894 0 0 1-.354-1.42c.08-.503.354-.95.768-1.244L58.8 2.23a1.862 1.862 0 0 1 2.166 0l58.011 41.39a1.888 1.888 0 0 1 .414 2.664l-4.585 6.133c-.369.492-.93.753-1.499.753zm-53.425-41.88c.38 0 .758.117 1.084.348l51.94 37.056 2.336-3.123-55.36-39.498L4.523 45.57l2.335 3.123 51.943-37.056a1.86 1.86 0 0 1 1.082-.348z"/>
            <path d="M102.924 36.35a1.876 1.876 0 0 1-1.871-1.882V18.815H89.825V23.8c0 1.04-.839 1.88-1.872 1.88a1.876 1.876 0 0 1-1.871-1.88v-6.868c0-1.04.838-1.88 1.871-1.88h14.971c1.033 0 1.871.84 1.871 1.88v17.535c0 1.04-.838 1.881-1.871 1.881zM72.982 114.766H46.784a1.876 1.876 0 0 1-1.872-1.882V75.257c0-1.04.839-1.882 1.872-1.882h26.198c1.033 0 1.872.841 1.872 1.882v37.627c0 1.04-.839 1.882-1.872 1.882zm-24.327-3.763h22.456V77.138H48.655v33.865zM28.07 107.24H16.842a1.876 1.876 0 0 1-1.871-1.881c0-1.04.838-1.882 1.871-1.882H28.07c1.033 0 1.872.841 1.872 1.882 0 1.04-.839 1.881-1.872 1.881zM31.813 95.952h-14.97a1.876 1.876 0 0 1-1.872-1.882c0-1.04.838-1.88 1.871-1.88h14.97c1.034 0 1.872.84 1.872 1.88s-.838 1.882-1.871 1.882zM28.07 84.664H16.842a1.876 1.876 0 0 1-1.871-1.882c0-1.04.838-1.881 1.871-1.881H28.07c1.033 0 1.872.84 1.872 1.881 0 1.04-.839 1.882-1.872 1.882zM31.813 73.375h-14.97a1.876 1.876 0 0 1-1.872-1.881c0-1.04.838-1.882 1.871-1.882h14.97c1.034 0 1.872.841 1.872 1.882 0 1.04-.838 1.881-1.871 1.881zM28.07 62.087H16.842a1.876 1.876 0 0 1-1.871-1.882c0-1.04.838-1.881 1.871-1.881H28.07c1.033 0 1.872.841 1.872 1.881s-.839 1.882-1.872 1.882zM31.813 50.798h-14.97a1.876 1.876 0 0 1-1.872-1.88c0-1.041.838-1.882 1.871-1.882h14.97c1.034 0 1.872.84 1.872 1.881 0 1.04-.838 1.881-1.871 1.881zM46.784 39.51H25.6a1.876 1.876 0 0 1-1.871-1.881c0-1.04.838-1.882 1.871-1.882h21.184c1.033 0 1.871.841 1.871 1.882 0 1.04-.838 1.881-1.871 1.881zM50.526 28.222h-9.094a1.876 1.876 0 0 1-1.872-1.882c0-1.04.839-1.881 1.872-1.881h9.094c1.033 0 1.872.841 1.872 1.881s-.839 1.882-1.872 1.882zM102.924 107.24H91.696a1.876 1.876 0 0 1-1.871-1.881c0-1.04.838-1.882 1.87-1.882h11.229c1.033 0 1.871.841 1.871 1.882 0 1.04-.838 1.881-1.871 1.881zM102.924 95.952h-14.97a1.876 1.876 0 0 1-1.872-1.882c0-1.04.838-1.88 1.871-1.88h14.971c1.033 0 1.871.84 1.871 1.88s-.838 1.882-1.871 1.882zM102.924 84.664H91.696a1.876 1.876 0 0 1-1.871-1.882c0-1.04.838-1.881 1.87-1.881h11.229c1.033 0 1.871.84 1.871 1.881 0 1.04-.838 1.882-1.871 1.882zM102.924 73.375h-14.97a1.876 1.876 0 0 1-1.872-1.881c0-1.04.838-1.882 1.871-1.882h14.971c1.033 0 1.871.841 1.871 1.882 0 1.04-.838 1.881-1.871 1.881zM102.924 62.087H91.696a1.876 1.876 0 0 1-1.871-1.882c0-1.04.838-1.881 1.87-1.881h11.229c1.033 0 1.871.841 1.871 1.881s-.838 1.882-1.871 1.882zM102.924 50.798h-14.97a1.876 1.876 0 0 1-1.872-1.88c0-1.041.838-1.882 1.871-1.882h14.971c1.033 0 1.871.84 1.871 1.881 0 1.04-.838 1.881-1.871 1.881zM94.166 39.51H72.982a1.876 1.876 0 0 1-1.87-1.881c0-1.04.837-1.882 1.87-1.882h21.184c1.033 0 1.871.841 1.871 1.882 0 1.04-.838 1.881-1.87 1.881zM78.335 28.222H69.24a1.876 1.876 0 0 1-1.872-1.882c0-1.04.839-1.881 1.872-1.881h9.095c1.032 0 1.87.841 1.87 1.881s-.838 1.882-1.87 1.882z"/>
            <path d="M65.497 99.715a1.876 1.876 0 0 1-1.871-1.882V93.13c0-1.04.838-1.882 1.871-1.882s1.871.841 1.871 1.882v4.703c0 1.04-.838 1.882-1.87 1.882zM69.24 67.731H50.526a1.876 1.876 0 0 1-1.871-1.881V47.036c0-1.04.838-1.882 1.871-1.882H69.24c1.033 0 1.871.841 1.871 1.882V65.85c0 1.04-.838 1.881-1.871 1.881zm-16.842-3.763h14.97v-15.05h-14.97v15.05z"/>
            <path d="M59.883 67.731a1.876 1.876 0 0 1-1.871-1.881V47.036c0-1.04.838-1.882 1.871-1.882s1.871.841 1.871 1.882V65.85c0 1.04-.838 1.881-1.871 1.881z"/>
            <path d="M69.24 58.324H50.526a1.876 1.876 0 0 1-1.871-1.881c0-1.04.838-1.882 1.871-1.882H69.24c1.033 0 1.871.841 1.871 1.882 0 1.04-.838 1.881-1.871 1.881zM99.181 13.17a1.876 1.876 0 0 1-1.871-1.88V9.407c0-1.04.838-1.881 1.871-1.881s1.872.84 1.872 1.88v1.882c0 1.04-.839 1.882-1.872 1.882zM91.696 13.17a1.876 1.876 0 0 1-1.871-1.88V9.407c0-1.04.838-1.881 1.87-1.881 1.034 0 1.872.84 1.872 1.88v1.882c0 1.04-.838 1.882-1.871 1.882zM95.439 5.645a1.876 1.876 0 0 1-1.872-1.881V1.882c0-1.04.839-1.881 1.872-1.881 1.033 0 1.87.84 1.87 1.881v1.882c0 1.04-.837 1.881-1.87 1.881z"/>
        </g>
    </g>
</svg>
