<svg xmlns="http://www.w3.org/2000/svg" width="163" height="120" viewBox="0 0 163 120">
    <g fill="none" fill-rule="evenodd">
        <path fill="#F99F1C" d="M30.563 22.979a5.1 5.1 0 0 1 5.093 5.106 5.1 5.1 0 0 1-5.093 5.106 5.1 5.1 0 0 1-5.094-5.106 5.1 5.1 0 0 1 5.093-5.106M58.578 22.979a5.1 5.1 0 0 1 5.094 5.106 5.1 5.1 0 0 1-5.094 5.106 5.1 5.1 0 0 1-5.094-5.106 5.1 5.1 0 0 1 5.094-5.106M86.594 22.979a5.1 5.1 0 0 1 5.094 5.106 5.1 5.1 0 0 1-5.094 5.106 5.1 5.1 0 0 1-5.094-5.106 5.1 5.1 0 0 1 5.094-5.106M114.61 22.979a5.1 5.1 0 0 1 5.093 5.106 5.1 5.1 0 0 1-5.094 5.106 5.1 5.1 0 0 1-5.093-5.106 5.1 5.1 0 0 1 5.093-5.106M142.625 22.979a5.1 5.1 0 0 1 5.094 5.106 5.1 5.1 0 0 1-5.094 5.106 5.1 5.1 0 0 1-5.094-5.106 5.1 5.1 0 0 1 5.094-5.106M25.469 76.596H56.03V45.957H25.47z"/>
        <path fill="#555" d="M12.734 12.766c-4.212 0-7.64 3.437-7.64 7.66v86.808c0 4.223 3.428 7.66 7.64 7.66h137.532c4.212 0 7.64-3.437 7.64-7.66V20.426c0-4.223-3.428-7.66-7.64-7.66H12.734zM150.266 120H12.734C5.713 120 0 114.273 0 107.234V20.426C0 13.386 5.713 7.66 12.734 7.66h137.532c7.021 0 12.734 5.726 12.734 12.766v86.808c0 7.04-5.713 12.766-12.734 12.766z"/>
        <path fill="#555" d="M25.469 20.426a2.553 2.553 0 0 0-2.547 2.553 2.553 2.553 0 0 0 2.547 2.553 2.553 2.553 0 0 0 2.547-2.553 2.553 2.553 0 0 0-2.547-2.553zm0 10.212c-4.213 0-7.64-3.436-7.64-7.66 0-4.222 3.427-7.659 7.64-7.659 4.212 0 7.64 3.437 7.64 7.66 0 4.223-3.428 7.66-7.64 7.66zM53.484 20.426a2.553 2.553 0 0 0-2.547 2.553 2.553 2.553 0 0 0 2.547 2.553 2.553 2.553 0 0 0 2.547-2.553 2.553 2.553 0 0 0-2.547-2.553zm0 10.212c-4.212 0-7.64-3.436-7.64-7.66 0-4.222 3.428-7.659 7.64-7.659 4.213 0 7.641 3.437 7.641 7.66 0 4.223-3.428 7.66-7.64 7.66zM81.5 20.426a2.553 2.553 0 0 0-2.547 2.553 2.553 2.553 0 0 0 2.547 2.553 2.553 2.553 0 0 0 2.547-2.553 2.553 2.553 0 0 0-2.547-2.553zm0 10.212c-4.213 0-7.64-3.436-7.64-7.66 0-4.222 3.427-7.659 7.64-7.659 4.213 0 7.64 3.437 7.64 7.66 0 4.223-3.427 7.66-7.64 7.66zM109.516 20.426a2.553 2.553 0 0 0-2.547 2.553 2.553 2.553 0 0 0 2.547 2.553 2.553 2.553 0 0 0 2.546-2.553 2.553 2.553 0 0 0-2.546-2.553zm0 10.212c-4.213 0-7.641-3.436-7.641-7.66 0-4.222 3.428-7.659 7.64-7.659 4.213 0 7.641 3.437 7.641 7.66 0 4.223-3.428 7.66-7.64 7.66zM137.531 20.426a2.553 2.553 0 0 0-2.547 2.553 2.553 2.553 0 0 0 2.547 2.553 2.553 2.553 0 0 0 2.547-2.553 2.553 2.553 0 0 0-2.547-2.553zm0 10.212c-4.212 0-7.64-3.436-7.64-7.66 0-4.222 3.428-7.659 7.64-7.659 4.213 0 7.64 3.437 7.64 7.66 0 4.223-3.427 7.66-7.64 7.66z"/>
        <path fill="#555" d="M25.469 20.426a2.55 2.55 0 0 1-2.547-2.554V2.553A2.55 2.55 0 0 1 25.469 0a2.55 2.55 0 0 1 2.547 2.553v15.32a2.55 2.55 0 0 1-2.547 2.553M53.484 20.426a2.55 2.55 0 0 1-2.547-2.554V2.553A2.55 2.55 0 0 1 53.484 0a2.55 2.55 0 0 1 2.547 2.553v15.32a2.55 2.55 0 0 1-2.547 2.553M81.5 20.426a2.55 2.55 0 0 1-2.547-2.554V2.553A2.55 2.55 0 0 1 81.5 0a2.55 2.55 0 0 1 2.547 2.553v15.32a2.55 2.55 0 0 1-2.547 2.553M109.516 20.426a2.55 2.55 0 0 1-2.547-2.554V2.553A2.55 2.55 0 0 1 109.516 0a2.55 2.55 0 0 1 2.546 2.553v15.32a2.55 2.55 0 0 1-2.546 2.553M137.531 20.426a2.55 2.55 0 0 1-2.547-2.554V2.553A2.55 2.55 0 0 1 137.531 0a2.55 2.55 0 0 1 2.547 2.553v15.32a2.55 2.55 0 0 1-2.547 2.553M22.922 68.936H48.39V43.404H22.92v25.532zm28.015 5.107H20.375a2.55 2.55 0 0 1-2.547-2.554V40.851a2.55 2.55 0 0 1 2.547-2.553h30.563a2.55 2.55 0 0 1 2.546 2.553V71.49a2.55 2.55 0 0 1-2.547 2.554zM134.984 43.404H63.672a2.55 2.55 0 0 1-2.547-2.553 2.55 2.55 0 0 1 2.547-2.553h71.312a2.55 2.55 0 0 1 2.547 2.553 2.55 2.55 0 0 1-2.547 2.553M134.984 58.723H63.672a2.55 2.55 0 0 1-2.547-2.553 2.55 2.55 0 0 1 2.547-2.553h71.312a2.55 2.55 0 0 1 2.547 2.553 2.55 2.55 0 0 1-2.547 2.553M134.984 74.043H63.672a2.55 2.55 0 0 1-2.547-2.554 2.55 2.55 0 0 1 2.547-2.553h71.312a2.55 2.55 0 0 1 2.547 2.553 2.55 2.55 0 0 1-2.547 2.554M134.984 89.362H20.375a2.55 2.55 0 0 1-2.547-2.553 2.55 2.55 0 0 1 2.547-2.554h114.61a2.55 2.55 0 0 1 2.546 2.554 2.55 2.55 0 0 1-2.547 2.553M20.375 104.68c-.69 0-1.327-.28-1.808-.74a2.676 2.676 0 0 1-.739-1.812c0-.664.278-1.328.739-1.813.942-.945 2.648-.945 3.616 0 .459.485.739 1.149.739 1.813 0 .663-.257 1.327-.739 1.812-.484.46-1.146.74-1.808.74M30.563 104.68a2.67 2.67 0 0 1-1.809-.74 2.574 2.574 0 0 1-.738-1.812c0-.664.254-1.328.738-1.813.968-.945 2.674-.945 3.617 0 .458.485.738 1.149.738 1.813 0 .663-.28 1.327-.738 1.812-.484.46-1.146.74-1.809.74M40.75 104.68a2.67 2.67 0 0 1-1.808-.74 2.676 2.676 0 0 1-.739-1.812c0-.664.278-1.328.739-1.813.968-.945 2.648-.945 3.616 0 .459.485.739 1.149.739 1.813 0 .663-.28 1.327-.739 1.812-.484.46-1.146.74-1.808.74M50.938 104.68a2.67 2.67 0 0 1-1.809-.74 2.676 2.676 0 0 1-.738-1.812c0-.664.277-1.328.738-1.813.943-.945 2.649-.945 3.617 0 .458.485.738 1.149.738 1.813 0 .663-.28 1.327-.738 1.812-.484.46-1.146.74-1.809.74M61.125 104.68c-.69 0-1.327-.28-1.808-.74a2.629 2.629 0 0 1-.739-1.812c0-.69.278-1.328.739-1.813.942-.945 2.648-.945 3.616 0 .459.485.739 1.149.739 1.813 0 .663-.28 1.327-.739 1.812-.484.46-1.146.74-1.808.74M71.313 104.68a2.67 2.67 0 0 1-1.809-.74 2.676 2.676 0 0 1-.738-1.812c0-.69.277-1.328.738-1.813.943-.945 2.649-.945 3.617 0 .458.485.738 1.149.738 1.813 0 .663-.28 1.327-.738 1.812-.484.46-1.146.74-1.808.74M81.5 104.68a2.67 2.67 0 0 1-1.808-.74 2.676 2.676 0 0 1-.739-1.812c0-.69.278-1.328.739-1.813.942-.945 2.648-.945 3.616 0 .459.485.739 1.149.739 1.813 0 .663-.28 1.327-.739 1.812-.484.46-1.146.74-1.808.74M91.688 104.68a2.67 2.67 0 0 1-1.809-.74 2.629 2.629 0 0 1-.738-1.812c0-.664.277-1.328.738-1.813.968-.945 2.649-.945 3.617 0 .458.485.738 1.149.738 1.813 0 .663-.28 1.327-.738 1.812-.484.46-1.146.74-1.808.74M101.875 104.68a2.67 2.67 0 0 1-1.808-.74 2.676 2.676 0 0 1-.739-1.812c0-.664.278-1.328.739-1.813.942-.945 2.674-.945 3.616 0 .459.485.739 1.149.739 1.813a2.6 2.6 0 0 1-.764 1.812 2.52 2.52 0 0 1-1.783.74M112.063 104.68c-.69 0-1.327-.28-1.809-.74a2.676 2.676 0 0 1-.738-1.812c0-.664.277-1.328.738-1.813.943-.945 2.674-.945 3.617 0 .458.485.738 1.149.738 1.813 0 .663-.28 1.327-.738 1.812-.484.46-1.146.74-1.808.74M122.25 104.68a2.67 2.67 0 0 1-1.808-.74 2.629 2.629 0 0 1-.739-1.812c0-.664.278-1.328.739-1.813.942-.945 2.674-.945 3.616 0 .459.485.739 1.149.739 1.813 0 .689-.28 1.327-.739 1.812-.484.46-1.12.74-1.808.74M132.438 104.68a2.67 2.67 0 0 1-1.809-.74 2.629 2.629 0 0 1-.738-1.812c0-.664.277-1.328.738-1.813.968-.945 2.674-.945 3.617 0 .481.485.738 1.149.738 1.813 0 .663-.257 1.327-.738 1.812-.484.46-1.146.74-1.809.74M142.625 104.68c-.69 0-1.327-.28-1.808-.74a2.676 2.676 0 0 1-.739-1.812c0-.664.278-1.328.739-1.813.942-.945 2.648-.945 3.616 0 .459.485.739 1.149.739 1.813 0 .663-.28 1.327-.739 1.812-.484.46-1.146.74-1.808.74M142.625 89.362c-.69 0-1.327-.281-1.808-.74a2.676 2.676 0 0 1-.739-1.813c0-.664.278-1.328.739-1.813.942-.945 2.648-.945 3.616 0 .459.485.739 1.149.739 1.813 0 .663-.28 1.327-.739 1.812-.484.46-1.146.74-1.808.74M142.625 74.043c-.69 0-1.327-.281-1.808-.74a2.676 2.676 0 0 1-.739-1.814c0-.663.278-1.327.739-1.812.942-.945 2.648-.945 3.616 0 .459.485.739 1.149.739 1.812 0 .664-.28 1.328-.739 1.813-.484.46-1.146.74-1.808.74M142.625 58.723c-.69 0-1.327-.28-1.808-.74a2.676 2.676 0 0 1-.739-1.813c0-.664.278-1.327.739-1.813.942-.944 2.648-.944 3.616 0 .459.486.739 1.15.739 1.813 0 .664-.28 1.328-.739 1.813-.484.46-1.146.74-1.808.74M142.625 43.404c-.69 0-1.327-.28-1.808-.74a2.676 2.676 0 0 1-.739-1.813c0-.664.278-1.328.739-1.813.942-.944 2.648-.944 3.616 0 .459.485.739 1.15.739 1.813 0 .664-.28 1.328-.739 1.813-.484.46-1.146.74-1.808.74"/>
    </g>
</svg>
