<svg xmlns="http://www.w3.org/2000/svg" width="27" height="27" viewBox="0 0 27 27">
    <path fill="#F99F1C" fill-rule="nonzero" d="M19.086 0c-4.364 0-7.914 3.55-7.914 7.914 0 1.487.42 2.874 1.137 4.064L.273 24.014a.93.93 0 1 0 1.316 1.317l1.67-1.67 3.066 3.066a.927.927 0 0 0 1.316 0 .93.93 0 0 0 0-1.316l-3.066-3.066 1.011-1.011 2.135 2.135a.927.927 0 0 0 1.317 0 .93.93 0 0 0 0-1.317l-2.135-2.135 1.01-1.01 3.067 3.065a.927.927 0 0 0 1.316 0 .93.93 0 0 0 0-1.316L9.23 17.69l4.225-4.225a7.887 7.887 0 0 0 5.631 2.363c4.364 0 7.914-3.55 7.914-7.914S23.45 0 19.086 0zm0 13.966a6.059 6.059 0 0 1-6.052-6.052 6.059 6.059 0 0 1 6.052-6.052 6.059 6.059 0 0 1 6.052 6.052 6.059 6.059 0 0 1-6.052 6.052z" opacity=".85"/>
</svg>
