<svg xmlns="http://www.w3.org/2000/svg" width="90" height="90" viewBox="0 0 90 90">
    <g fill="none" fill-rule="nonzero">
        <path fill="#DDD" fill-opacity=".65" d="M16.407 52.05v-.014l29.91-32.358 29.908 32.358v.014z"/>
        <g fill="#9B9B9B">
            <path d="M74.821 45.012c-.46 0-.868-.22-1.124-.559L44.913 13.311 16.082 44.5c-.258.312-.644.51-1.08.51a1.399 1.399 0 0 1-1.403-1.399v-.014c0-.354.133-.696.373-.956l29.91-32.358c.531-.573 1.527-.573 2.06 0L75.85 42.642c.24.26.374.602.374.956a1.41 1.41 0 0 1-1.403 1.414zM15.439 89.99c-3.87 0-7.018-3.154-7.018-7.03 0-3.878 3.148-7.032 7.018-7.032 3.87 0 7.017 3.154 7.017 7.031s-3.148 7.032-7.017 7.032zm0-11.25a4.22 4.22 0 0 0 0 8.438 4.22 4.22 0 0 0 0-8.437z"/>
            <path d="M15.439 78.74c-3.87 0-7.018-3.154-7.018-7.03 0-3.878 3.148-7.032 7.018-7.032 3.87 0 7.017 3.154 7.017 7.031s-3.148 7.032-7.017 7.032zm0-11.25a4.22 4.22 0 0 0 0 8.438 4.22 4.22 0 0 0 0-8.437z"/>
            <path d="M15.439 67.49c-3.87 0-7.018-3.154-7.018-7.03 0-3.878 3.148-7.032 7.018-7.032 3.87 0 7.017 3.154 7.017 7.031s-3.148 7.032-7.017 7.032zm0-11.25a4.22 4.22 0 0 0 0 8.438 4.22 4.22 0 0 0 0-8.437z"/>
            <path d="M15.439 56.24c-3.87 0-7.018-3.154-7.018-7.03 0-3.878 3.148-7.032 7.018-7.032 3.87 0 7.017 3.154 7.017 7.031s-3.148 7.032-7.017 7.032zm0-11.25a4.22 4.22 0 0 0 0 8.438 4.22 4.22 0 0 0 0-8.437zM74.386 89.99c-3.87 0-7.017-3.154-7.017-7.03 0-3.878 3.148-7.032 7.017-7.032 3.87 0 7.018 3.154 7.018 7.031s-3.148 7.032-7.018 7.032zm0-11.25a4.22 4.22 0 0 0 0 8.438 4.22 4.22 0 0 0 0-8.437z"/>
            <path d="M74.386 78.74c-3.87 0-7.017-3.154-7.017-7.03 0-3.878 3.148-7.032 7.017-7.032 3.87 0 7.018 3.154 7.018 7.031s-3.148 7.032-7.018 7.032zm0-11.25a4.22 4.22 0 0 0 0 8.438 4.22 4.22 0 0 0 0-8.437z"/>
            <path d="M74.386 67.49c-3.87 0-7.017-3.154-7.017-7.03 0-3.878 3.148-7.032 7.017-7.032 3.87 0 7.018 3.154 7.018 7.031s-3.148 7.032-7.018 7.032zm0-11.25a4.22 4.22 0 0 0 0 8.438 4.22 4.22 0 0 0 0-8.437z"/>
            <path d="M74.386 56.24c-3.87 0-7.017-3.154-7.017-7.03 0-3.878 3.148-7.032 7.017-7.032 3.87 0 7.018 3.154 7.018 7.031s-3.148 7.032-7.018 7.032zm0-11.25a4.22 4.22 0 0 0 0 8.438 4.22 4.22 0 0 0 0-8.437zM74.386 89.99H15.44a1.404 1.404 0 0 1-1.404-1.406c0-.777.63-1.406 1.404-1.406h58.947c.775 0 1.404.629 1.404 1.406 0 .778-.629 1.407-1.404 1.407zM74.386 78.74H54.737a1.404 1.404 0 0 1-1.403-1.406c0-.777.628-1.406 1.403-1.406h19.65c.774 0 1.403.629 1.403 1.406 0 .778-.629 1.407-1.404 1.407zM35.088 78.74h-19.65a1.404 1.404 0 0 1-1.403-1.406c0-.777.63-1.406 1.404-1.406h19.65c.774 0 1.403.629 1.403 1.406 0 .778-.63 1.407-1.404 1.407zM74.386 67.49H54.737a1.404 1.404 0 0 1-1.403-1.406c0-.777.628-1.406 1.403-1.406h19.65c.774 0 1.403.629 1.403 1.406 0 .778-.629 1.407-1.404 1.407zM35.088 67.49h-19.65a1.404 1.404 0 0 1-1.403-1.406c0-.777.63-1.406 1.404-1.406h19.65c.774 0 1.403.629 1.403 1.406 0 .778-.63 1.407-1.404 1.407z"/>
            <path d="M74.386 56.24H15.44a1.404 1.404 0 0 1-1.404-1.406c0-.777.63-1.406 1.404-1.406h58.947c.775 0 1.404.629 1.404 1.406 0 .778-.629 1.407-1.404 1.407zM74.807 44.99h-59.79a1.404 1.404 0 0 1-1.403-1.406c0-.777.63-1.406 1.404-1.406h59.79c.774 0 1.403.629 1.403 1.406 0 .778-.629 1.407-1.404 1.407zM64.407 33.74h-38.99a1.404 1.404 0 0 1-1.403-1.406c0-.777.63-1.406 1.404-1.406h38.99c.774 0 1.403.629 1.403 1.406 0 .778-.629 1.407-1.404 1.407zM54.007 22.49h-18.19a1.404 1.404 0 0 1-1.403-1.406c0-.777.63-1.406 1.404-1.406h18.19c.774 0 1.403.629 1.403 1.406 0 .778-.629 1.407-1.404 1.407z"/>
            <path d="M54.737 89.99H35.088a1.404 1.404 0 0 1-1.403-1.406v-33.75c0-.777.628-1.406 1.403-1.406h19.65c.774 0 1.403.629 1.403 1.406v33.75c0 .778-.63 1.407-1.404 1.407zm-18.245-2.812h16.842V56.241H36.492v30.937zM70.174 30.562a1.406 1.406 0 0 1-1.4-1.326l-1.328-23.62h-5.839l-1.264 11.362a1.407 1.407 0 0 1-1.55 1.243 1.406 1.406 0 0 1-1.239-1.552l1.404-12.614a1.404 1.404 0 0 1 1.395-1.252h8.42c.745 0 1.36.582 1.403 1.326l1.403 24.947a1.405 1.405 0 0 1-1.322 1.484l-.083.002zM88.421 50.616h-8.42a1.404 1.404 0 0 1-1.404-1.407c0-.777.629-1.406 1.403-1.406h8.421c.775 0 1.404.629 1.404 1.406 0 .778-.629 1.407-1.404 1.407z"/>
            <path d="M88.421 50.616h-8.42a1.404 1.404 0 0 1-1.404-1.407c0-.777.629-1.406 1.403-1.406h5.242l-40.33-44.32-40.33 44.32h5.243c.775 0 1.403.629 1.403 1.406 0 .778-.628 1.407-1.403 1.407H1.404a1.41 1.41 0 0 1-1.037-2.354L43.875.448c.532-.585 1.543-.585 2.075 0L89.459 48.26a1.41 1.41 0 0 1 .247 1.516c-.225.51-.729.839-1.285.839zM69.095 11.24H59.72a1.404 1.404 0 0 1-1.404-1.406c0-.777.629-1.406 1.404-1.406h9.375c.775 0 1.404.629 1.404 1.406 0 .778-.63 1.407-1.404 1.407z"/>
            <path d="M44.913 50.616c-.365 0-.73-.155-.997-.408a1.48 1.48 0 0 1-.407-.999c0-.365.155-.732.407-.998.52-.52 1.474-.52 1.993 0 .253.266.407.633.407.998 0 .366-.154.732-.407.999a1.474 1.474 0 0 1-.996.408zM50.527 50.616c-.365 0-.73-.155-.997-.408a1.48 1.48 0 0 1-.407-.999c0-.365.155-.732.407-.998.52-.52 1.474-.52 1.993 0 .253.266.407.633.407.998 0 .366-.154.732-.407.999a1.474 1.474 0 0 1-.996.408zM39.299 50.616c-.365 0-.73-.155-.997-.408a1.48 1.48 0 0 1-.407-.999c0-.365.154-.732.407-.998.52-.52 1.474-.52 1.993 0 .253.266.407.633.407.998 0 .366-.154.732-.407.999a1.474 1.474 0 0 1-.996.408z"/>
        </g>
    </g>
</svg>
