<svg xmlns="http://www.w3.org/2000/svg" width="120" height="120" viewBox="0 0 120 120">
    <g fill="none" fill-rule="evenodd">
        <path fill="#F99F1C" d="M46.875 75c-14.475 0-26.25-11.775-26.25-26.25S32.4 22.5 46.875 22.5s26.25 11.775 26.25 26.25S61.35 75 46.875 75"/>
        <path fill="#555" d="M43.125 18.75c-13.44 0-24.375 10.935-24.375 24.375S29.685 67.5 43.125 67.5 67.5 56.565 67.5 43.125 56.565 18.75 43.125 18.75zm0 52.5C27.617 71.25 15 58.633 15 43.125S27.617 15 43.125 15 71.25 27.617 71.25 43.125 58.633 71.25 43.125 71.25z"/>
        <path fill="#555" d="M43.125 33.75c-5.17 0-9.375 4.206-9.375 9.375 0 5.17 4.206 9.375 9.375 9.375 5.17 0 9.375-4.206 9.375-9.375 0-5.17-4.206-9.375-9.375-9.375zm0 22.5C35.888 56.25 30 50.36 30 43.125 30 35.889 35.888 30 43.125 30S56.25 35.89 56.25 43.125c0 7.236-5.888 13.125-13.125 13.125zM43.125 22.5a1.874 1.874 0 0 1-1.875-1.875V1.875a1.874 1.874 0 1 1 3.75 0v18.75c0 1.037-.84 1.875-1.875 1.875M43.125 86.25a1.874 1.874 0 0 1-1.875-1.875v-18.75a1.874 1.874 0 1 1 3.75 0v18.75c0 1.037-.84 1.875-1.875 1.875M84.375 45h-18.75a1.874 1.874 0 1 1 0-3.75h18.75a1.874 1.874 0 1 1 0 3.75M20.625 45H1.875a1.874 1.874 0 1 1 0-3.75h18.75a1.874 1.874 0 1 1 0 3.75"/>
        <path fill="#555" d="M65.16 72.011a3.72 3.72 0 0 1 2.64 1.086l42.05 42.052c1.36 1.36 3.736 1.42 5.16.132.698-.63 1.096-1.538 1.122-2.558a4.293 4.293 0 0 0-1.241-3.131l-3.38-3.379a1.873 1.873 0 0 1-.003-2.647l4.069-4.09a2.25 2.25 0 0 0 .673-1.601c0-.587-.238-1.147-.67-1.58-.867-.878-2.323-.869-3.17-.008l-4.099 4.08a1.874 1.874 0 0 1-2.65-.004l-5.4-5.4a1.874 1.874 0 0 1-.001-2.65l7.819-7.839c.433-.433.671-.999.671-1.599 0-.587-.238-1.147-.67-1.58-.866-.876-2.323-.869-3.17-.008l-7.849 7.828a1.874 1.874 0 0 1-2.65-.002L73.098 67.798c-1.264-1.264-1.446-3.27-.431-4.77 4.862-7.2 6.91-15.977 5.767-24.71C76.32 22.157 62.987 9.27 46.733 7.676c-10.73-1.054-21.231 2.685-28.802 10.255C10.36 25.5 6.624 36 7.676 46.734 9.27 62.99 22.155 76.32 38.318 78.435c8.74 1.144 17.514-.907 24.712-5.77v-.001a3.812 3.812 0 0 1 2.13-.653zM112.5 120c-2 0-3.883-.78-5.3-2.2L65.148 75.749l-1.069-1.53 1.05 1.553c-7.957 5.377-17.646 7.651-27.3 6.38C19.958 79.815 5.706 65.074 3.945 47.1 2.783 35.242 6.913 23.644 15.279 15.277 23.644 6.913 35.231 2.77 47.1 3.945c17.972 1.76 32.715 16.012 35.053 33.885 1.262 9.643-1.003 19.337-6.38 27.298l19.966 20.008 6.512-6.495c2.25-2.278 6.218-2.287 8.488.01a5.949 5.949 0 0 1 1.761 4.224c0 1.601-.628 3.11-1.768 4.25l-6.495 6.513 2.752 2.754 2.762-2.75c2.248-2.275 6.216-2.286 8.488.01A5.941 5.941 0 0 1 120 97.876c0 1.601-.628 3.11-1.768 4.25l-2.745 2.76 2.055 2.057a8.057 8.057 0 0 1 2.34 5.879c-.053 2.056-.889 3.918-2.357 5.246A7.493 7.493 0 0 1 112.5 120z"/>
    </g>
</svg>
