<svg xmlns="http://www.w3.org/2000/svg" width="27" height="27" viewBox="0 0 27 27">
    <g fill="#F99F1C" fill-rule="nonzero">
        <path d="M13.5 0C6.056 0 0 6.056 0 13.5S6.056 27 13.5 27 27 20.944 27 13.5 20.944 0 13.5 0zm0 25.313c-6.512 0-11.813-5.3-11.813-11.813 0-6.514 5.3-11.813 11.813-11.813 6.512 0 11.813 5.3 11.813 11.813 0 6.514-5.3 11.813-11.813 11.813z"/>
        <path d="M16.264 10.278h-.627a2.809 2.809 0 0 0-.527-1.14h1.154a.57.57 0 0 0 0-1.138H10.57a.57.57 0 0 0 0 1.139h2.278c.74 0 1.367.477 1.603 1.139H10.57a.57.57 0 0 0 0 1.139h3.881a1.705 1.705 0 0 1-1.603 1.139H10.57a.574.574 0 0 0-.526.351.565.565 0 0 0 .124.621l4.554 4.555a.568.568 0 1 0 .806-.804l-3.584-3.585h.904a2.85 2.85 0 0 0 2.789-2.277h.627a.57.57 0 0 0 0-1.14z" opacity=".85"/>
    </g>
</svg>
